[
  {
    "type": "tab",
    "id": "37392f8a.0c606",
    "label": "Flow 1"
  },
  {
    "id": "35fd9767.84f0d8",
    "type": "redconnect-auth-settings",
    "z": "37392f8a.0c606",
    "name": "",
    "serversecret": "checkmeout"
  },
  {
    "id": "dae2d5be.4ee5b8",
    "type": "redconnect-auth-settings",
    "z": "37392f8a.0c606",
    "name": "Auth 1",
    "serversecret": "checkmeout"
  },
  {
    "id": "659e8e95.c37b9",
    "type": "redconnect-connected",
    "z": "37392f8a.0c606",
    "name": "",
    "auth": "dae2d5be.4ee5b8",
    "x": 146,
    "y": 109,
    "wires": [
      [
        "a6ca2c78.b051e",
        "d1e7a2e7.e6fba"
      ]
    ]
  },
  {
    "id": "498de593.2bc3bc",
    "type": "redconnect-disconnected",
    "z": "37392f8a.0c606",
    "name": "",
    "auth": "dae2d5be.4ee5b8",
    "x": 138,
    "y": 277,
    "wires": [
      [
        "89245dd4.6444e",
        "d1e7a2e7.e6fba"
      ]
    ]
  },
  {
    "id": "284f841b.d60bcc",
    "type": "redconnect-event",
    "z": "37392f8a.0c606",
    "name": "",
    "auth": "dae2d5be.4ee5b8",
    "x": 107,
    "y": 384,
    "wires": [
      [
        "ba4b06ec.6402d8",
        "d1e7a2e7.e6fba"
      ]
    ]
  },
  {
    "id": "a6ca2c78.b051e",
    "type": "debug",
    "z": "37392f8a.0c606",
    "name": "",
    "active": true,
    "console": "false",
    "complete": "payload",
    "x": 321,
    "y": 64,
    "wires": []
  },
  {
    "id": "89245dd4.6444e",
    "type": "debug",
    "z": "37392f8a.0c606",
    "name": "",
    "active": true,
    "console": "false",
    "complete": "res",
    "x": 304.5,
    "y": 214,
    "wires": []
  },
  {
    "id": "ba4b06ec.6402d8",
    "type": "debug",
    "z": "37392f8a.0c606",
    "name": "",
    "active": true,
    "console": "false",
    "complete": "false",
    "x": 392.5,
    "y": 379,
    "wires": []
  },
  {
    "id": "19f04f4a.f04591",
    "type": "inject",
    "z": "37392f8a.0c606",
    "name": "",
    "topic": "",
    "payload": "",
    "payloadType": "date",
    "repeat": "",
    "crontab": "",
    "once": false,
    "x": 193.5,
    "y": 731,
    "wires": [
      [
        "19fe2bc8.562214"
      ]
    ]
  },
  {
    "id": "19fe2bc8.562214",
    "type": "function",
    "z": "37392f8a.0c606",
    "name": "",
    "func": "msg.payload = \"http://google.com\";\nreturn msg;",
    "outputs": 1,
    "noerr": 0,
    "x": 387,
    "y": 731,
    "wires": [
      [
        "b99aa9b6.a6f348"
      ]
    ]
  },
  {
    "id": "6b43c962.446de8",
    "type": "inject",
    "z": "37392f8a.0c606",
    "name": "",
    "topic": "",
    "payload": "",
    "payloadType": "date",
    "repeat": "",
    "crontab": "",
    "once": false,
    "x": 193.5,
    "y": 625,
    "wires": [
      [
        "2f6b3501.6d87fa"
      ]
    ]
  },
  {
    "id": "2f6b3501.6d87fa",
    "type": "function",
    "z": "37392f8a.0c606",
    "name": "",
    "func": "msg.payload = {\n    \"checkIt\": \"bro\"\n};\nreturn msg;",
    "outputs": 1,
    "noerr": 0,
    "x": 387,
    "y": 625,
    "wires": [
      [
        "4bf08e9c.4ce18"
      ]
    ]
  },
  {
    "id": "b99aa9b6.a6f348",
    "type": "redconnect-send-onscreen",
    "z": "37392f8a.0c606",
    "topic": "laptop",
    "url": "http://google.com",
    "sendto": "device",
    "x": 574,
    "y": 710,
    "wires": []
  },
  {
    "id": "ed36224.b6ccce",
    "type": "function",
    "z": "37392f8a.0c606",
    "name": "",
    "func": "msg.statusCode = 200;\nreturn msg;",
    "outputs": 1,
    "noerr": 0,
    "x": 620,
    "y": 411,
    "wires": [
      [
        "e039201e.9f117"
      ]
    ]
  },
  {
    "id": "69831b82.6457d4",
    "type": "redconnect-authorize-subscription",
    "z": "37392f8a.0c606",
    "name": "",
    "auth": "dae2d5be.4ee5b8",
    "x": 168,
    "y": 473,
    "wires": [
      [
        "ed36224.b6ccce",
        "6e55f5f6.461b9c"
      ]
    ]
  },
  {
    "id": "6e55f5f6.461b9c",
    "type": "debug",
    "z": "37392f8a.0c606",
    "name": "",
    "active": true,
    "console": "false",
    "complete": "false",
    "x": 560,
    "y": 473,
    "wires": []
  },
  {
    "id": "4bf08e9c.4ce18",
    "type": "redconnect-send-action",
    "z": "37392f8a.0c606",
    "event": "action_man",
    "topic": "mygroup",
    "sendto": "group",
    "x": 578,
    "y": 627,
    "wires": []
  },
  {
    "id": "d1e7a2e7.e6fba",
    "type": "function",
    "z": "37392f8a.0c606",
    "name": "",
    "func": "msg.statusCode = 200;\nreturn msg;",
    "outputs": 1,
    "noerr": 0,
    "x": 625.5,
    "y": 261,
    "wires": [
      [
        "e039201e.9f117"
      ]
    ]
  },
  {
    "id": "e039201e.9f117",
    "type": "http response",
    "z": "37392f8a.0c606",
    "name": "",
    "x": 837.5,
    "y": 338,
    "wires": []
  }
]